%YAML 1.1
%TAG !u! tag:unity3d.com,2011:
--- !u!1001 &2296989988306335064
PrefabInstance:
  m_ObjectHideFlags: 0
  serializedVersion: 2
  m_Modification:
    m_TransformParent: {fileID: 0}
    m_Modifications:
    - target: {fileID: 2598536630653425177, guid: e2e908e84a8612f4f89df53c7307ee77, type: 3}
      propertyPath: m_Size.y
      value: 0.95
      objectReference: {fileID: 0}
    - target: {fileID: 2598536630653425180, guid: e2e908e84a8612f4f89df53c7307ee77, type: 3}
      propertyPath: m_RootOrder
      value: 0
      objectReference: {fileID: 0}
    - target: {fileID: 2598536630653425180, guid: e2e908e84a8612f4f89df53c7307ee77, type: 3}
      propertyPath: m_LocalPosition.x
      value: 0
      objectReference: {fileID: 0}
    - target: {fileID: 2598536630653425180, guid: e2e908e84a8612f4f89df53c7307ee77, type: 3}
      propertyPath: m_LocalPosition.y
      value: 0
      objectReference: {fileID: 0}
    - target: {fileID: 2598536630653425180, guid: e2e908e84a8612f4f89df53c7307ee77, type: 3}
      propertyPath: m_LocalPosition.z
      value: 0
      objectReference: {fileID: 0}
    - target: {fileID: 2598536630653425180, guid: e2e908e84a8612f4f89df53c7307ee77, type: 3}
      propertyPath: m_LocalRotation.w
      value: 1
      objectReference: {fileID: 0}
    - target: {fileID: 2598536630653425180, guid: e2e908e84a8612f4f89df53c7307ee77, type: 3}
      propertyPath: m_LocalRotation.x
      value: 0
      objectReference: {fileID: 0}
    - target: {fileID: 2598536630653425180, guid: e2e908e84a8612f4f89df53c7307ee77, type: 3}
      propertyPath: m_LocalRotation.y
      value: 0
      objectReference: {fileID: 0}
    - target: {fileID: 2598536630653425180, guid: e2e908e84a8612f4f89df53c7307ee77, type: 3}
      propertyPath: m_LocalRotation.z
      value: 0
      objectReference: {fileID: 0}
    - target: {fileID: 2598536630653425180, guid: e2e908e84a8612f4f89df53c7307ee77, type: 3}
      propertyPath: m_LocalEulerAnglesHint.x
      value: 0
      objectReference: {fileID: 0}
    - target: {fileID: 2598536630653425180, guid: e2e908e84a8612f4f89df53c7307ee77, type: 3}
      propertyPath: m_LocalEulerAnglesHint.y
      value: 0
      objectReference: {fileID: 0}
    - target: {fileID: 2598536630653425180, guid: e2e908e84a8612f4f89df53c7307ee77, type: 3}
      propertyPath: m_LocalEulerAnglesHint.z
      value: 0
      objectReference: {fileID: 0}
    - target: {fileID: 2598536630653425181, guid: e2e908e84a8612f4f89df53c7307ee77, type: 3}
      propertyPath: m_Name
      value: GreenSlimePuyo
      objectReference: {fileID: 0}
    - target: {fileID: 2598536630653425182, guid: e2e908e84a8612f4f89df53c7307ee77, type: 3}
      propertyPath: puyoName
      value: Green Slime Puyo
      objectReference: {fileID: 0}
    m_RemovedComponents: []
  m_SourcePrefab: {fileID: 100100000, guid: e2e908e84a8612f4f89df53c7307ee77, type: 3}
